// FS891?pageNum=1&pageSize=7
{
    "pageNum": 1,
    "pageSize": 7,
    "totalPage": 7,
    "total": 44,
    "list": [
        {
            "id": 496471,
            "productId": 2139,
            "memberNickName": "超能吃****超能力",
            "productName": "飞科太空小飞碟剃须刀FS891",
            "star": 5,
            "createTime": "2022-04-03 12:46:48",
            "showStatus": "1",
            "pics": "",
            "memberIcon": "https://flycopic.oss-cn-hangzhou.aliyuncs.com/mall/member/avatar/20220331/b3a2af54a722d6b231db621156adf690.jpg",
            "content": "还不错",
            "commentReplayList": []
        },
        {
            "id": 496421,
            "productId": 2139,
            "memberNickName": "lit****rincess0125",
            "productName": "飞科太空小飞碟剃须刀FS891",
            "star": 5,
            "createTime": "2022-02-06 16:37:16",
            "showStatus": "1",
            "content": "性价比高，适合经常出差和工作繁忙的打工人，出行可以装在口袋里或直接放在办公室，都非常的方便，家人很喜欢。情人节的包装礼盒也非常的赞，送人的话非常有面儿，而且这款产品的颜值很高，小巧玲珑。总而言之，推荐入手！ ",
            "commentReplayList": []
        },
        {
            "id": 496430,
            "productId": 2139,
            "memberNickName": "全幼儿****26",
            "productName": "飞科太空小飞碟剃须刀FS891",
            "star": 5,
            "createTime": "2022-02-06 15:15:22",
            "showStatus": "1",
            "content": "很小巧 很喜欢 哈哈哈哈哈 值得购买",
            "commentReplayList": []
        },
        {
            "id": 496431,
            "productId": 2139,
            "memberNickName": "晶77****",
            "productName": "飞科太空小飞碟剃须刀FS891",
            "star": 5,
            "createTime": "2022-02-06 15:09:59",
            "showStatus": "1",
            "content": "好高档啊？非常赞",
            "commentReplayList": []
        },
        {
            "id": 496434,
            "productId": 2139,
            "memberNickName": "柠萌酱****",
            "productName": "飞科太空小飞碟剃须刀FS891",
            "star": 5,
            "createTime": "2022-02-06 15:06:27",
            "showStatus": "1",
            "content": "男朋友说很可爱",
            "commentReplayList": []
        },
        {
            "id": 496437,
            "productId": 2139,
            "memberNickName": "呆呆呆****31",
            "productName": "飞科太空小飞碟剃须刀FS891",
            "star": 5,
            "createTime": "2022-02-06 14:53:08",
            "showStatus": "1",
            "content": "棒棒哒",
            "commentReplayList": []
        },
        {
            "id": 496439,
            "productId": 2139,
            "memberNickName": "xia****a0927",
            "productName": "飞科太空小飞碟剃须刀FS891",
            "star": 5,
            "createTime": "2022-02-06 14:43:40",
            "showStatus": "1",
            "content": "外观做工：科技感十足。 充电时间：充电时间很快。 剃须速度：速度可以。 剃须动力：定力满满。 剃须效果：效果很好，老公爱不释手，主要是看起来非常时尚，年轻的标配。 ",
            "commentReplayList": []
        }
    ]
}